Digital_Door_Lock/Digital_Door_Lock.sim/sim_1/behav/xsim/digital_door_lock.vcd
$date
   Wed Aug 27 16:50:44 2025
$end

$version
  2024.2.0
  $dumpfile ("digital_door_lock.vcd") 
$end

$timescale
  1ps
$end

$scope module simulation $end
$var reg 1 ! clk $end
$var reg 1 " reset $end
$var reg 1 # serial_in $end
$var wire 1 $ unlock_door $end
$var wire 1 % wrong_password $end
$scope module uut $end
$var wire 1 & clk $end
$var wire 1 ' reset $end
$var wire 1 ( serial_in $end
$var reg 1 ) unlock_door $end
$var reg 1 * wrong_password $end
$var reg 3 + state [2:0] $end
$var reg 3 , next_state [2:0] $end
$var reg 4 - register [3:0] $end
$upscope $end
$upscope $end
$enddefinitions $end

#0
$dumpvars
0!
1"
x#
0$
0%
0&
1'
x(
0)
0*
b0 +
b1 ,
b0 -
$end

#5000
1!
1&

#10000
0!
0"
0&
0'

#15000
1!
1&
b1 +
b10 ,
b0x -

#20000
0!
0&

#22000
1#
1(
b10 ,

#25000
1!
1&
b10 +
b11 ,
b0x1 -

#30000
0!
0&

#32000
0#
0(
b11 ,

#35000
1!
1&
b11 +
b100 ,
b0x10 -

#40000
0!
0&

#42000
1#
1(
b100 ,

#45000
1!
1%
1&
1*
b100 +
b0 ,
bx101 -

#50000
0!
0&

#55000
1!
0%
1&
0*
b0 +
b1 ,

#60000
0!
0&

#65000
1!
1&
b1 +
b10 ,
b1011 -

#70000
0!
0&

#75000
1!
1&
b10 +
b11 ,
b111 -

#80000
0!
0&

#85000
1!
1&
b11 +
b100 ,
b1111 -

#90000
0!
0&

#92000
1"
1'
b0 +
b1 ,
b0 -

#95000
1!
1&

#100000
0!
0&

#102000
0"
0'

#105000
1!
1&
b1 +
b10 ,
b1 -

#110000
0!
0&

#115000
1!
1&
b10 +
b11 ,
b11 -

#120000
0!
0&

#124000
0#
0(
b11 ,

#125000
1!
1&
b11 +
b100 ,
b110 -

#130000
0!
0&

#135000
1!
1%
1&
1*
b100 +
b0 ,
b1100 -

#140000
0!
0&

#144000
1#
1(
1*
b0 ,

#145000
1!
0%
1&
0*
b0 +
b1 ,

#150000
0!
0&

#155000
1!
1&
b1 +
b10 ,
b1001 -

#160000
0!
0&

#165000
1!
1&
b10 +
b11 ,
b11 -

#170000
0!
0&

#175000
1!
1&
b11 +
b100 ,
b111 -

#180000
0!
0&

#184000
1"
1'
b0 +
b1 ,
b0 -

#185000
1!
1&

#190000
0!
0&

#194000
0"
0'

#195000
1!
1&
b1 +
b10 ,
b1 -

#200000
0!
0&

#205000
1!
1&
b10 +
b11 ,
b11 -

#210000
0!
0&

#215000
1!
1&
b11 +
b100 ,
b111 -

#216000
0#
0(
b100 ,

#220000
0!
0&

#225000
1!
1%
1&
1*
b100 +
b0 ,
b1110 -

#226000
1#
1(
1*
b0 ,

#230000
0!
0&

#235000
1!
0%
1&
0*
b0 +
b1 ,

#236000
0#
0(
b1 ,

#240000
0!
0&

#245000
1!
1&
b1 +
b10 ,
b1100 -

#250000
0!
0&

#255000
1!
1&
b10 +
b11 ,
b1000 -
