Johnson_Counter/johnson_counter.sim/sim_1/behav/xsim/simulate.log
Time resolution is 1 ps
t=0, clk=0, reset=1, Q=0000
t=5000, clk=1, reset=1, Q=0000
t=10000, clk=0, reset=0, Q=0000
t=15000, clk=1, reset=0, Q=0001
t=20000, clk=0, reset=0, Q=0001
t=25000, clk=1, reset=0, Q=0011
t=30000, clk=0, reset=0, Q=0011
t=35000, clk=1, reset=0, Q=0111
t=40000, clk=0, reset=0, Q=0111
t=45000, clk=1, reset=0, Q=1111
t=50000, clk=0, reset=0, Q=1111
t=55000, clk=1, reset=0, Q=1110
t=60000, clk=0, reset=0, Q=1110
t=65000, clk=1, reset=0, Q=1100
t=70000, clk=0, reset=0, Q=1100
t=75000, clk=1, reset=0, Q=1000
t=80000, clk=0, reset=0, Q=1000
t=85000, clk=1, reset=0, Q=0000
t=90000, clk=0, reset=0, Q=0000
t=95000, clk=1, reset=0, Q=0001
t=100000, clk=0, reset=0, Q=0001
t=105000, clk=1, reset=0, Q=0011
$finish called at time : 110 ns : File "D:/Vivado/johnson_counter/johnson_counter.srcs/sim_1/new/simulation.v" Line 21
